<svg width="24" height="24" viewBox="0 0 24 24" fill="none" xmlns="http://www.w3.org/2000/svg">
<path fill-rule="evenodd" clip-rule="evenodd" d="M17.5732 4.34699L18.8661 2.1077L17.134 1.1077L15.8411 3.34706L15.1719 0.849373L13.24 1.36701L13.9093 3.86469L11.6699 2.5718L10.6699 4.30385L12.909 5.59656L10.4116 6.26572L10.9293 8.19757L13.3584 7.54668L10.5905 12.3409L12.3225 13.3409L15.1404 8.46009L15.828 11.0262L17.7599 10.5086L17.0906 8.01084L19.3302 9.30385L20.3302 7.5718L18.0908 6.27887L20.5886 5.60957L20.071 3.67772L17.5732 4.34699ZM3.3584 20.8672L8.8584 11.3409L14.0546 14.3409L8.55455 23.8672L3.3584 20.8672ZM11.3661 15.0981L9.63402 14.0981L8.63402 15.8301L10.3661 16.8301L11.3661 15.0981Z" fill="#353D45"/>
</svg>
