<svg width="25" height="24" viewBox="0 0 25 24" fill="none" xmlns="http://www.w3.org/2000/svg">
<path fill-rule="evenodd" clip-rule="evenodd" d="M11.9452 12C15.2589 12 17.9452 9.31371 17.9452 6C17.9452 2.68629 15.2589 0 11.9452 0C8.63144 0 5.94515 2.68629 5.94515 6C5.94515 9.31371 8.63144 12 11.9452 12ZM12.0001 14C6.26204 14 1.55015 18.3935 1.04492 24H22.9552C22.45 18.3935 17.7381 14 12.0001 14Z" fill="#384047"/>
</svg>
