<svg width="24" height="24" viewBox="0 0 24 24" fill="none" xmlns="http://www.w3.org/2000/svg">
<path fill-rule="evenodd" clip-rule="evenodd" d="M16.866 1.5L18.5981 2.5L18.4641 4.73205L17.4641 6.4641L14 4.4641L15 2.73205L16.866 1.5ZM13 6.19615L16.4641 8.19615L9.4641 20.3205L5.73205 22.7846L6 18.3205L13 6.19615Z" fill="#353D45"/>
</svg>
