<svg width="16" height="16" viewBox="0 0 16 16" fill="none" xmlns="http://www.w3.org/2000/svg">
<rect x="0.5" y="0.5" width="15" height="15" rx="7.5" fill="#555E6B" stroke="#555E6B"/>
<circle cx="8" cy="8" r="4" fill="#A5B1C2"/>
</svg>
