<svg width="24" height="24" viewBox="0 0 24 24" fill="none" xmlns="http://www.w3.org/2000/svg">
<path fill-rule="evenodd" clip-rule="evenodd" d="M2 11L2 5H0V11V13V19H2L2 13L24 13V11L2 11Z" fill="#353D45"/>
</svg>
