[log (17-8-14 15:20:55)] App.open [10692:]
[log (17-8-14 15:21:01)] App.focus:  [10692:Labscope.exe]
[log (17-8-14 15:21:02)] CLICK on L(364,277)@S(0)[0,0 1920x1080] (520 msec)
[log (17-8-14 15:21:04)] CLICK on L(1489,132)@S(0)[0,0 1920x1080] (520 msec)
[log (17-8-14 15:21:04)] highlight R[0,0 1920x1041]@S(0) for 2.0 secs
[log (17-8-14 15:21:07)] CLICK on L(566,155)@S(0)[0,0 1920x1080] (520 msec)
[log (17-8-14 15:21:09)] CLICK on L(1854,534)@S(0)[0,0 1920x1080] (522 msec)
[log (17-8-14 15:21:12)] CLICK on L(46,80)@S(0)[0,0 1920x1080] (520 msec)
[log (17-8-14 15:21:12)] App.close: [10692:Labscope.exe]
