<svg width="24" height="24" viewBox="0 0 24 24" fill="none" xmlns="http://www.w3.org/2000/svg">
<path fill-rule="evenodd" clip-rule="evenodd" d="M3 22V24H3.00006H5.00006H19H21V22V8H19L19 22L5.00006 22L5.00006 2L13 2V0H5.00006H3.00006H3V2H3.00006L3.00006 22H3ZM21 6L15 0V6H21Z" fill="#353D45"/>
</svg>
