<svg width="16" height="16" viewBox="0 0 16 16" fill="none" xmlns="http://www.w3.org/2000/svg">
<rect x="0.5" y="0.5" width="15" height="15" rx="2.5" fill="#272F36" stroke="#080A0D"/>
<rect x="4" y="4" width="8" height="8" rx="1" fill="#9EA9B8"/>
</svg>
