<svg width="24" height="24" viewBox="0 0 24 24" fill="none" xmlns="http://www.w3.org/2000/svg">
<path fill-rule="evenodd" clip-rule="evenodd" d="M24 0H0V24H24V0ZM22 22V2L2 22H22ZM14 18H20V20H14V18ZM8 4H6V6H4V8H6V10H8V8H10V6H8V4Z" fill="#353D45"/>
</svg>
