<svg width="180" height="140" viewBox="0 0 180 140" fill="none" xmlns="http://www.w3.org/2000/svg">
<rect width="180" height="140" fill="#353D45"/>
<path fill-rule="evenodd" clip-rule="evenodd" d="M12 59H4V65.6667L6.66665 65.6667L6.66661 65.6667L11.9999 65.6667L11.9999 65.6667H12V59ZM11.3332 65H11.3333V59.6667H4.66667V64.6667L6.66667 61.6667L8.26666 64.0667L9.33327 63L11.3332 65ZM10.6667 61C10.6667 61.3682 10.3682 61.6667 10 61.6667C9.63181 61.6667 9.33333 61.3682 9.33333 61C9.33333 60.6318 9.63181 60.3333 10 60.3333C10.3682 60.3333 10.6667 60.6318 10.6667 61Z" fill="#D1D9E5"/>
<path fill-rule="evenodd" clip-rule="evenodd" d="M7.66667 29H4V29.6667V35H12V29.6667H8L7.66667 29ZM7.66667 30.3333H11.3333V34.3333H4.66667V30.3333V29.6667H7.33333L7.66667 30.3333Z" fill="#D1D9E5"/>
<rect x="160" y="124" width="16" height="12" fill="#1A2329"/>
<rect x="140" y="124" width="16" height="12" fill="#1A2329"/>
<rect x="160" y="4" width="16" height="12" fill="#1A2329"/>
<rect x="142" y="4" width="16" height="12" fill="#1A2329"/>
<rect x="4" y="9" width="51" height="6" fill="#555E6B"/>
<rect x="17" y="31" width="51" height="2" fill="#555E6B"/>
<rect x="17" y="46" width="38" height="2" fill="#555E6B"/>
<rect x="17" y="60" width="44" height="2" fill="#555E6B"/>
<rect x="120" y="124" width="16" height="12" fill="#1A2329"/>
<path fill-rule="evenodd" clip-rule="evenodd" d="M127.333 128.167V128.167V128.833H127.333V130.167H127.333V130.167C127.333 130.259 127.259 130.333 127.167 130.333C127.075 130.333 127 130.259 127 130.167L127 130.164V129.085L127 129.085V128.5V128.5C127 128.408 126.925 128.333 126.833 128.333C126.741 128.333 126.667 128.408 126.667 128.5V128.5V129.253L126.667 129.253V129.5H126.667V130.493L126.667 130.5C126.667 130.959 127.038 131.332 127.497 131.333L127.5 131.333C127.592 131.333 127.667 131.408 127.667 131.5C127.667 131.592 127.592 131.667 127.5 131.667L127.495 131.667C126.853 131.664 126.333 131.143 126.333 130.5L126.333 130.491V130V130H126.333V129.496C126.331 129.406 126.257 129.333 126.167 129.333C126.075 129.333 126 129.408 126 129.5V129.5V130.494L126 130.5C126 131.328 126.672 132 127.5 132C128.328 132 129 131.328 129 130.5V130.5V129.167V129.167C129 129.075 128.925 129 128.833 129C128.741 129 128.667 129.075 128.667 129.167V129.167V129.557L128.667 129.557V130V130.164C128.667 130.165 128.667 130.166 128.667 130.167C128.667 130.259 128.592 130.333 128.5 130.333C128.408 130.333 128.333 130.259 128.333 130.167C128.333 130.167 128.333 130.167 128.333 130.167V130.003L128.333 130V130H128.333V128.496C128.331 128.406 128.257 128.333 128.167 128.333C128.075 128.333 128 128.408 128 128.5V128.5V129.085L128 129.085V130.167C128 130.258 127.927 130.332 127.836 130.333H127.831C127.74 130.332 127.667 130.258 127.667 130.167V129.009L127.667 129.009V128.167V128.167C127.667 128.075 127.592 128 127.5 128C127.408 128 127.333 128.075 127.333 128.167Z" fill="#D1D9E5"/>
<rect x="22" y="124" width="16" height="12" fill="#1A2329"/>
<rect x="4" y="124" width="16" height="12" fill="#1A2329"/>
<rect y="108" width="180" height="12" fill="#262E36"/>
<rect y="24" width="180" height="1" fill="#262E36"/>
<rect y="39" width="180" height="1" fill="#262E36"/>
<path fill-rule="evenodd" clip-rule="evenodd" d="M7.66667 44H4V44.6667V50H12V44.6667H8L7.66667 44ZM7.66667 45.3333H11.3333V49.3333H4.66667V45.3333V44.6667H7.33333L7.66667 45.3333Z" fill="#D1D9E5"/>
<rect y="54" width="180" height="1" fill="#262E36"/>
<rect y="69" width="180" height="1" fill="#262E36"/>
<path fill-rule="evenodd" clip-rule="evenodd" d="M12 74H4V80.6667L6.66665 80.6667L6.66661 80.6667L11.9999 80.6667L11.9999 80.6667H12V74ZM11.3332 80H11.3333V74.6667H4.66667V79.6667L6.66667 76.6667L8.26666 79.0667L9.33327 78L11.3332 80ZM10.6667 76C10.6667 76.3682 10.3682 76.6667 10 76.6667C9.63181 76.6667 9.33333 76.3682 9.33333 76C9.33333 75.6318 9.63181 75.3333 10 75.3333C10.3682 75.3333 10.6667 75.6318 10.6667 76Z" fill="#D1D9E5"/>
<rect x="17" y="75" width="28" height="2" fill="#555E6B"/>
<rect x="17" y="79" width="33" height="1" fill="#404952"/>
<rect y="84" width="180" height="1" fill="#262E36"/>
<path fill-rule="evenodd" clip-rule="evenodd" d="M170 8H166V9H170V8ZM170 9.33331H166V10.3333H170V9.33331ZM166 10.6667H170V11.6667H166V10.6667ZM168.667 8.33331H166.333V8.66665H168.667V8.33331ZM166.333 9.66669H168.667V10H166.333V9.66669ZM168.667 11H166.333V11.3333H168.667V11ZM169.667 11.1667C169.667 11.2587 169.592 11.3333 169.5 11.3333C169.408 11.3333 169.333 11.2587 169.333 11.1667C169.333 11.0746 169.408 11 169.5 11C169.592 11 169.667 11.0746 169.667 11.1667ZM169.5 10C169.592 10 169.667 9.9254 169.667 9.83335C169.667 9.74131 169.592 9.66669 169.5 9.66669C169.408 9.66669 169.333 9.74131 169.333 9.83335C169.333 9.9254 169.408 10 169.5 10Z" fill="#D1D9E5"/>
<circle cx="89" cy="9" r="5" fill="#1A2329"/>
<rect x="166" y="110" width="10" height="8" fill="#1A2329"/>
<rect x="94" y="114" width="16" height="1" fill="#555E6B"/>
<rect x="70" y="114" width="24" height="1" fill="#C1CBD9"/>
<rect x="17" y="64" width="34" height="1" fill="#404952"/>
<path fill-rule="evenodd" clip-rule="evenodd" d="M168.167 128H167.833L167.714 128.358C167.467 128.401 167.238 128.498 167.041 128.637L166.704 128.468L166.468 128.704L166.637 129.041C166.498 129.238 166.401 129.467 166.358 129.714L166 129.833V130.167L166.358 130.286C166.401 130.533 166.498 130.762 166.637 130.959L166.468 131.296L166.704 131.532L167.041 131.363C167.238 131.502 167.467 131.599 167.714 131.642L167.833 132H168.167L168.286 131.642C168.533 131.599 168.762 131.502 168.959 131.363L169.296 131.532L169.532 131.296L169.363 130.959C169.502 130.762 169.6 130.533 169.642 130.286L170 130.167V129.833L169.642 129.714C169.6 129.467 169.502 129.238 169.363 129.041L169.532 128.704L169.296 128.468L168.959 128.637C168.762 128.498 168.533 128.4 168.286 128.358L168.167 128ZM169.167 130C169.167 130.644 168.644 131.167 168 131.167C167.356 131.167 166.833 130.644 166.833 130C166.833 129.356 167.356 128.833 168 128.833C168.644 128.833 169.167 129.356 169.167 130Z" fill="#D1D9E5"/>
<path d="M89.7692 8.33333V9.66667H88.2308V8.33333H89.7692ZM90.0769 8H87.9231V10H90.0769V8Z" fill="#D1D9E5"/>
<path d="M91 9.66667H90.6923V8.33333H91V8H90.3846V10H91V9.66667Z" fill="#D1D9E5"/>
<path d="M87 9.66667H87.3077V8.33333H87V8H87.6154V10H87V9.66667Z" fill="#D1D9E5"/>
<path fill-rule="evenodd" clip-rule="evenodd" d="M149.333 128V128.333L147.333 128.333V131.667H147V128.333H147L147 128H149.333ZM149.333 132V131.667V131.333H149L149 131.667H147L147 132H149.333ZM149 128.667H149.333V128.333L149 128.333L149 128.667ZM149 129.333L150 130L149 130.667V130.167L148 130.167V129.833H149V129.333Z" fill="#D1D9E5"/>
<path fill-rule="evenodd" clip-rule="evenodd" d="M148.833 8L148 8.83333L148.667 8.83333V11.1667H148L148.833 12L149.667 11.1667H149V8.83333H149.667L148.833 8ZM151.667 9.16667H150V9.5H151.667V9.16667ZM151.667 9.83337H150V10.1667H151.667V9.83337ZM150 10.5H151.667V10.8334H150V10.5Z" fill="#D1D9E5"/>
<path fill-rule="evenodd" clip-rule="evenodd" d="M10.7071 130.414L10.7071 130.414L10 129.707L10.2357 129.471L10.7071 129.943L11.6499 129L11.8856 129.236L10.7071 130.414L10.7071 130.414ZM14 129.529V129.195L12.1667 129.195L12.1667 129.529L14 129.529ZM13.6667 130.195V129.862L12.1667 129.862V130.195L13.6667 130.195ZM14 131.029V131.362H12.1667L12.1667 131.029H14ZM13.6667 132.029V131.695H12.1667V132.029H13.6667ZM10.4715 132.012L10.4715 132.012L10.0001 131.54L10.2358 131.305L10.7072 131.776L11.65 130.833L11.8857 131.069L10.7072 132.247L10.4715 132.012Z" fill="#D1D9E5"/>
<path fill-rule="evenodd" clip-rule="evenodd" d="M28 129.667L28.3333 129.667L28.6667 129.667L28.6667 130L28.3333 130L28.3333 131.667L31.6667 131.667L31.6667 130L31.3333 130L31.3333 129.667L31.6667 129.667L32 129.667L32 132L31.6667 132L28.3333 132L28 132L28 129.667ZM29.3333 129.667L30 128.667L30.6667 129.667L30.1667 129.667L30.1667 130.667L29.8333 130.667L29.8333 129.667L29.3333 129.667Z" fill="#D1D9E5"/>
<path fill-rule="evenodd" clip-rule="evenodd" d="M169 112H170.091V113.091H169V112ZM170.455 112H171.545V113.091H170.455V112ZM173 112H171.909V113.091H173V112ZM169 113.455H170.091V114.545H169V113.455ZM171.545 113.455H170.455V114.545H171.545V113.455ZM171.909 113.455H173V114.545H171.909V113.455ZM170.091 114.909H169V116H170.091V114.909ZM170.455 114.909H171.545V116H170.455V114.909ZM173 114.909H171.909V116H173V114.909Z" fill="#D1D9E5"/>
</svg>
