<svg width="24" height="24" viewBox="0 0 24 24" fill="none" xmlns="http://www.w3.org/2000/svg">
<path fill-rule="evenodd" clip-rule="evenodd" d="M18.6777 7.36396L17.2635 5.94975L12.3137 10.8995L7.36397 5.94975L5.94976 7.36396L10.8995 12.3137L5.94976 17.2635L7.36397 18.6777L12.3137 13.7279L17.2635 18.6777L18.6777 17.2635L13.7279 12.3137L18.6777 7.36396Z" fill="#353D45"/>
</svg>
