<svg width="24" height="24" viewBox="0 0 24 24" fill="none" xmlns="http://www.w3.org/2000/svg">
<path fill-rule="evenodd" clip-rule="evenodd" d="M20.7071 14.1099C20.1081 12.3268 18.8815 10.7465 17.1244 9.73205C13.298 7.52291 8.40532 8.83391 6.19618 12.6603L4.46413 11.6603C7.22556 6.87733 13.3415 5.23858 18.1244 8C20.9577 9.63582 22.6877 12.4488 23.0532 15.4645L20.7071 14.1099ZM1.00003 9.66025L2.33016 17.3564L9.66028 14.6603L1.00003 9.66025Z" fill="#353D45"/>
</svg>
