<svg width="24" height="24" viewBox="0 0 24 24" fill="none" xmlns="http://www.w3.org/2000/svg">
<path fill-rule="evenodd" clip-rule="evenodd" d="M3 20L1 20L1 22L1 24L3 24L5 24L5 22L3 22L3 20ZM21 18L23 18L23 14L21 14L21 18ZM12 10L8 16L11 16L11 20L13 20L13 16L16 16L12 10ZM1 14L3 14L3 18L1 18L1 14ZM23 20L23 22L23 24L21 24L19 24L19 22L21 22L21 20L23 20ZM17 22L17 24L13 24L13 22L17 22ZM11 24L11 22L7 22L7 24L11 24ZM21 -8.74228e-07L23 -9.61651e-07L23 2L23 10L23 12L18 12L18 10L21 10L21 2L3 2L3 10L6 10L6 12L0.999999 12L0.999999 10L0.999999 2L0.999999 1.90735e-06L3 -8.74228e-08L21 -8.74228e-07Z" fill="#353D45"/>
</svg>
